"formato","palabra_clave","idioma"
"caf","at","za"
"3ds","quis","ak"
"vst","autem","it"
"mp4s","voluptatum","yi"
"tmo","ab","ts"
"st","ex","ff"
"msf","omnis","rm"
"npx","est","tn"
"srt","iusto","nl"
"ott","quis","tr"
